test_run_dir/SingleCycle.Launcher1554891941/Top.vcd
$version Generated by VerilatedVcd $end
$date Tue Jun 19 15:09:54 2018
 $end
$timescale   1ns $end

 $scope module TOP $end
  $var wire  1 U clock $end
  $var wire  1 W io_boot $end
  $var wire 32 _ io_test_dm_addr [31:0] $end
  $var wire 32 ` io_test_dm_in [31:0] $end
  $var wire 32 a io_test_dm_out [31:0] $end
  $var wire  1 ^ io_test_dm_rd $end
  $var wire  1 ] io_test_dm_wr $end
  $var wire 32 Z io_test_im_addr [31:0] $end
  $var wire 32 [ io_test_im_in [31:0] $end
  $var wire 32 \ io_test_im_out [31:0] $end
  $var wire  1 Y io_test_im_rd $end
  $var wire  1 X io_test_im_wr $end
  $var wire  1 V reset $end
  $scope module Top $end
   $var wire 32 2 clk_cnt [31:0] $end
   $var wire  1 U clock $end
   $var wire 32 h cpath_io_Inst [31:0] $end
   $var wire  1 W cpath_io_boot $end
   $var wire  1 c cpath_io_ctl_ALUsrc $end
   $var wire  2 b cpath_io_ctl_PC_sel [1:0] $end
   $var wire  1 U dmm_clock $end
   $var wire  1 - dmm_io_Read_En $end
   $var wire  1 , dmm_io_Write_En $end
   $var wire 32 ` dmm_io_data_In [31:0] $end
   $var wire 32 . dmm_io_data_Out [31:0] $end
   $var wire 32 e dmm_io_mem_addr [31:0] $end
   $var wire  1 U dpath_clock $end
   $var wire  1 c dpath_io_ctl_ALUsrc $end
   $var wire  2 b dpath_io_ctl_PC_sel [1:0] $end
   $var wire  1 & dpath_io_dat_zero $end
   $var wire 32 # dpath_io_dmem_datIn [31:0] $end
   $var wire 32 0 dpath_io_imem_addr [31:0] $end
   $var wire  1 V dpath_reset $end
   $var wire 12 d imm__T_108_addr [11:0] $end
   $var wire 32 ) imm__T_108_data [31:0] $end
   $var wire 12 d imm__T_121_addr [11:0] $end
   $var wire 32 * imm__T_121_data [31:0] $end
   $var wire 12 1 imm__T_133_addr [11:0] $end
   $var wire 32 $ imm__T_133_data [31:0] $end
   $var wire 12 d imm__T_98_addr [11:0] $end
   $var wire 32 [ imm__T_98_data [31:0] $end
   $var wire  1 + imm__T_98_en $end
   $var wire  1 + imm__T_98_mask $end
   $var wire  1 W io_boot $end
   $var wire 32 _ io_test_dm_addr [31:0] $end
   $var wire 32 ` io_test_dm_in [31:0] $end
   $var wire 32 a io_test_dm_out [31:0] $end
   $var wire  1 ^ io_test_dm_rd $end
   $var wire  1 ] io_test_dm_wr $end
   $var wire 32 Z io_test_im_addr [31:0] $end
   $var wire 32 [ io_test_im_in [31:0] $end
   $var wire 32 \ io_test_im_out [31:0] $end
   $var wire  1 Y io_test_im_rd $end
   $var wire  1 X io_test_im_wr $end
   $var wire  1 V reset $end
   $scope module cpath $end
    $var wire 32 h io_Inst [31:0] $end
    $var wire  1 W io_boot $end
    $var wire  1 c io_ctl_ALUsrc $end
    $var wire  2 b io_ctl_PC_sel [1:0] $end
   $upscope $end
   $scope module dmm $end
    $var wire  1 U clock $end
    $var wire  1 - io_Read_En $end
    $var wire  1 , io_Write_En $end
    $var wire 32 ` io_data_In [31:0] $end
    $var wire 32 . io_data_Out [31:0] $end
    $var wire 32 e io_mem_addr [31:0] $end
    $var wire 14 g mem__T_10_addr [13:0] $end
    $var wire 32 . mem__T_10_data [31:0] $end
    $var wire 14 g mem__T_12_addr [13:0] $end
    $var wire 32 ` mem__T_12_data [31:0] $end
    $var wire  1 , mem__T_12_en $end
    $var wire  1 , mem__T_12_mask $end
   $upscope $end
   $scope module dpath $end
    $var wire 32 % BusA [31:0] $end
    $var wire 32 # BusB [31:0] $end
    $var wire 32 ' BusWr [31:0] $end
    $var wire 32 4 RegFile(0) [31:0] $end
    $var wire 32 5 RegFile(1) [31:0] $end
    $var wire 32 > RegFile(10) [31:0] $end
    $var wire 32 ? RegFile(11) [31:0] $end
    $var wire 32 @ RegFile(12) [31:0] $end
    $var wire 32 A RegFile(13) [31:0] $end
    $var wire 32 B RegFile(14) [31:0] $end
    $var wire 32 C RegFile(15) [31:0] $end
    $var wire 32 D RegFile(16) [31:0] $end
    $var wire 32 E RegFile(17) [31:0] $end
    $var wire 32 F RegFile(18) [31:0] $end
    $var wire 32 G RegFile(19) [31:0] $end
    $var wire 32 6 RegFile(2) [31:0] $end
    $var wire 32 H RegFile(20) [31:0] $end
    $var wire 32 I RegFile(21) [31:0] $end
    $var wire 32 J RegFile(22) [31:0] $end
    $var wire 32 K RegFile(23) [31:0] $end
    $var wire 32 L RegFile(24) [31:0] $end
    $var wire 32 M RegFile(25) [31:0] $end
    $var wire 32 N RegFile(26) [31:0] $end
    $var wire 32 O RegFile(27) [31:0] $end
    $var wire 32 P RegFile(28) [31:0] $end
    $var wire 32 Q RegFile(29) [31:0] $end
    $var wire 32 7 RegFile(3) [31:0] $end
    $var wire 32 R RegFile(30) [31:0] $end
    $var wire 32 S RegFile(31) [31:0] $end
    $var wire 32 8 RegFile(4) [31:0] $end
    $var wire 32 9 RegFile(5) [31:0] $end
    $var wire 32 : RegFile(6) [31:0] $end
    $var wire 32 ; RegFile(7) [31:0] $end
    $var wire 32 < RegFile(8) [31:0] $end
    $var wire 32 = RegFile(9) [31:0] $end
    $var wire  5 i RegFile__T_49_addr [4:0] $end
    $var wire 32 h RegFile__T_49_data [31:0] $end
    $var wire  1 j RegFile__T_49_en $end
    $var wire  1 j RegFile__T_49_mask $end
    $var wire  5 i RegFile__T_51_addr [4:0] $end
    $var wire 32 % RegFile__T_51_data [31:0] $end
    $var wire  5 i RegFile__T_52_addr [4:0] $end
    $var wire 32 # RegFile__T_52_data [31:0] $end
    $var wire  5 i RegFile__T_55_addr [4:0] $end
    $var wire 32 ' RegFile__T_55_data [31:0] $end
    $var wire  1 k RegFile__T_55_en $end
    $var wire  1 k RegFile__T_55_mask $end
    $var wire 32 ' alu9_io_ALUout [31:0] $end
    $var wire  1 & alu9_io_cmp_out $end
    $var wire 32 % alu9_io_in1 [31:0] $end
    $var wire 32 / alu9_io_in2 [31:0] $end
    $var wire  1 U clock $end
    $var wire  1 c io_ctl_ALUsrc $end
    $var wire  2 b io_ctl_PC_sel [1:0] $end
    $var wire  1 & io_dat_zero $end
    $var wire 32 # io_dmem_datIn [31:0] $end
    $var wire 32 0 io_imem_addr [31:0] $end
    $var wire 32 T j_target [31:0] $end
    $var wire 32 3 pc_br [31:0] $end
    $var wire 32 f pc_next [31:0] $end
    $var wire 32 3 pc_plus4 [31:0] $end
    $var wire 32 0 pc_reg [31:0] $end
    $var wire  1 V reset $end
    $scope module alu9 $end
     $var wire 32 ( adder_out [31:0] $end
     $var wire 32 ' io_ALUout [31:0] $end
     $var wire  1 & io_cmp_out $end
     $var wire 32 % io_in1 [31:0] $end
     $var wire 32 / io_in2 [31:0] $end
     $var wire 32 ' logic_out [31:0] $end
    $upscope $end
   $upscope $end
  $upscope $end
 $upscope $end
$enddefinitions $end


#0
b00000000000000000000000000000000 #
b00000000000000000000000000000000 $
b00000000000000000000000000000000 %
0&
b00000000000000000000000000000000 '
b00000000000000000000000000000000 (
b00000000000000000000000000000000 )
b00000000000000000000000000000000 *
0+
1,
0-
b00000000000000000000000000000000 .
b00000000000000000000000000000000 /
b00000000000000000000000000000000 0
b000000000000 1
b00000000000000000000000000000000 2
b00000000000000000000000000000100 3
b00000000000000000000000000000000 4
b00000000000000000000000000000000 5
b00000000000000000000000000000000 6
b00000000000000000000000000000000 7
b00000000000000000000000000000000 8
b00000000000000000000000000000000 9
b00000000000000000000000000000000 :
b00000000000000000000000000000000 ;
b00000000000000000000000000000000 <
b00000000000000000000000000000000 =
b00000000000000000000000000000000 >
b00000000000000000000000000000000 ?
b00000000000000000000000000000000 @
b00000000000000000000000000000000 A
b00000000000000000000000000000000 B
b00000000000000000000000000000000 C
b00000000000000000000000000000000 D
b00000000000000000000000000000000 E
b00000000000000000000000000000000 F
b00000000000000000000000000000000 G
b00000000000000000000000000000000 H
b00000000000000000000000000000000 I
b00000000000000000000000000000000 J
b00000000000000000000000000000000 K
b00000000000000000000000000000000 L
b00000000000000000000000000000000 M
b00000000000000000000000000000000 N
b00000000000000000000000000000000 O
b00000000000000000000000000000000 P
b00000000000000000000000000000000 Q
b00000000000000000000000000000000 R
b00000000000000000000000000000000 S
b00000000000000000000000000000000 T
0U
1V
0W
0X
0Y
b00000000000000000000000000000000 Z
b00000000000000000000000000000000 [
b00000000000000000000000000000000 \
0]
0^
b00000000000000000000000000000000 _
b00000000000000000000000000000000 `
b00000000000000000000000000000000 a
b01 b
0c
b000000000000 d
b00000000000000000000000000000000 e
b00000000000000000000000000000100 f
b00000000000000 g
b00000000000000000000000000000000 h
b00000 i
1j
0k
#1
1U
#2
0U
#3
1U
#4
0U
#5
1U
#6
0U
#7
1U
#8
0U
#9
1U
#10
0U
0V
1W
b00 b
1c
b00000000000000000000000000000000 f
#11
b00000000000000000000000000000001 2
1U
#12
1+
0U
1X
#13
b00000000000000000000000000000010 2
1U
#14
0U
b00000000000000000000000000000100 Z
b00100100000010010000000000000001 [
b000000000001 d
#15
b00100100000010010000000000000001 )
b00100100000010010000000000000001 *
b00000000000000000000000000000011 2
1U
#16
b00000000000000000000000000000000 )
b00000000000000000000000000000000 *
0U
b00000000000000000000000000001000 Z
b00110100000100010000011111010000 [
b000000000010 d
#17
b00110100000100010000011111010000 )
b00110100000100010000011111010000 *
b00000000000000000000000000000100 2
1U
#18
b00000000000000000000000000000000 )
b00000000000000000000000000000000 *
0U
b00000000000000000000000000001100 Z
b00110100000100100000011111010100 [
b000000000011 d
#19
b00110100000100100000011111010100 )
b00110100000100100000011111010100 *
b00000000000000000000000000000101 2
1U
#20
b00000000000000000000000000000000 )
b00000000000000000000000000000000 *
0U
b00000000000000000000000000010000 Z
b00000010001010011000100000100001 [
b000000000100 d
#21
b00000010001010011000100000100001 )
b00000010001010011000100000100001 *
b00000000000000000000000000000110 2
1U
#22
b00000000000000000000000000000000 )
b00000000000000000000000000000000 *
0U
b00000000000000000000000000010100 Z
b00000010001010011000100000100010 [
b000000000101 d
#23
b00000010001010011000100000100010 )
b00000010001010011000100000100010 *
b00000000000000000000000000000111 2
1U
#24
b00000000000000000000000000000000 )
b00000000000000000000000000000000 *
0U
b00000000000000000000000000011000 Z
b00000010001100100100100000101010 [
b000000000110 d
#25
b00000010001100100100100000101010 )
b00000010001100100100100000101010 *
b00000000000000000000000000001000 2
1U
#26
b00000000000000000000000000000000 )
b00000000000000000000000000000000 *
0U
b00000000000000000000000000011100 Z
b00000010001010011000100000100001 [
b000000000111 d
#27
b00000010001010011000100000100001 )
b00000010001010011000100000100001 *
b00000000000000000000000000001001 2
1U
#28
b00000000000000000000000000000000 )
b00000000000000000000000000000000 *
0U
b00000000000000000000000000100000 Z
b10101100000010010000000000000000 [
b000000001000 d
#29
b10101100000010010000000000000000 )
b10101100000010010000000000000000 *
b00000000000000000000000000001010 2
1U
#30
b00000000000000000000000000000000 )
b00000000000000000000000000000000 *
0U
b00000000000000000000000000100100 Z
b10101100000100010000000000000100 [
b000000001001 d
#31
b10101100000100010000000000000100 )
b10101100000100010000000000000100 *
b00000000000000000000000000001011 2
1U
#32
b00000000000000000000000000000000 )
b00000000000000000000000000000000 *
0U
b00000000000000000000000000101000 Z
b10101100000100100000000000001000 [
b000000001010 d
#33
b10101100000100100000000000001000 )
b10101100000100100000000000001000 *
b00000000000000000000000000001100 2
1U
#34
b00000000000000000000000000000000 )
b00000000000000000000000000000000 *
0U
b00000000000000000000000000101100 Z
b00010010001100100000000000000001 [
b000000001011 d
#35
b00010010001100100000000000000001 )
b00010010001100100000000000000001 *
b00000000000000000000000000001101 2
1U
#36
b00000000000000000000000000000000 )
b00000000000000000000000000000000 *
0U
b00000000000000000000000000110000 Z
b00001000000000000000000000000001 [
b000000001100 d
#37
b00001000000000000000000000000001 )
b00001000000000000000000000000001 *
b00000000000000000000000000001110 2
1U
#38
b00000000000000000000000000000000 )
b00000000000000000000000000000000 *
0U
b00000000000000000000000000110100 Z
b00000000000000000000000000000000 [
b000000001101 d
#39
b00000000000000000000000000001111 2
1U
#40
0U
b00000000000000000000000000111000 Z
b000000001110 d
#41
b00000000000000000000000000010000 2
1U
#42
0+
0U
0W
0X
b01 b
0c
b00000000000000000000000000000100 f
#43
b00100100000010010000000000000001 $
b00000000000000000000000000000100 0
b000000000001 1
b00000000000000000000000000010001 2
b00000000000000000000000000001000 3
1U
b00000000000000000000000000001000 f
#44
0U
#45
b00110100000100010000011111010000 $
b00000000000000000000000000001000 0
b000000000010 1
b00000000000000000000000000010010 2
b00000000000000000000000000001100 3
1U
b00000000000000000000000000001100 f
#46
0U
#47
b00110100000100100000011111010100 $
b00000000000000000000000000001100 0
b000000000011 1
b00000000000000000000000000010011 2
b00000000000000000000000000010000 3
1U
b00000000000000000000000000010000 f
#48
0U
#49
b00000010001010011000100000100001 $
b00000000000000000000000000010000 0
b000000000100 1
b00000000000000000000000000010100 2
b00000000000000000000000000010100 3
1U
b00000000000000000000000000010100 f
#50
0U
#51
b00000010001010011000100000100010 $
b00000000000000000000000000010100 0
b000000000101 1
b00000000000000000000000000010101 2
b00000000000000000000000000011000 3
1U
b00000000000000000000000000011000 f
#52
0U
#53
b00000010001100100100100000101010 $
b00000000000000000000000000011000 0
b000000000110 1
b00000000000000000000000000010110 2
b00000000000000000000000000011100 3
1U
b00000000000000000000000000011100 f
#54
0U
#55
b00000010001010011000100000100001 $
b00000000000000000000000000011100 0
b000000000111 1
b00000000000000000000000000010111 2
b00000000000000000000000000100000 3
1U
b00000000000000000000000000100000 f
#56
0U
#57
b10101100000010010000000000000000 $
b00000000000000000000000000100000 0
b000000001000 1
b00000000000000000000000000011000 2
b00000000000000000000000000100100 3
1U
b00000000000000000000000000100100 f
#58
0U
#59
b10101100000100010000000000000100 $
b00000000000000000000000000100100 0
b000000001001 1
b00000000000000000000000000011001 2
b00000000000000000000000000101000 3
1U
b00000000000000000000000000101000 f
#60
0U
#61
b10101100000100100000000000001000 $
b00000000000000000000000000101000 0
b000000001010 1
b00000000000000000000000000011010 2
b00000000000000000000000000101100 3
1U
b00000000000000000000000000101100 f
#62
0U
#63
b00010010001100100000000000000001 $
b00000000000000000000000000101100 0
b000000001011 1
b00000000000000000000000000011011 2
b00000000000000000000000000110000 3
1U
b00000000000000000000000000110000 f
#64
0U
#65
b00001000000000000000000000000001 $
b00000000000000000000000000110000 0
b000000001100 1
b00000000000000000000000000011100 2
b00000000000000000000000000110100 3
1U
b00000000000000000000000000110100 f
#66
0U
#67
b00000000000000000000000000000000 $
b00000000000000000000000000110100 0
b000000001101 1
b00000000000000000000000000011101 2
b00000000000000000000000000111000 3
1U
b00000000000000000000000000111000 f
#68
0U
#69
b00000000000000000000000000111000 0
b000000001110 1
b00000000000000000000000000011110 2
b00000000000000000000000000111100 3
1U
b00000000000000000000000000111100 f
#70
0U
#71
b00000000000000000000000000111100 0
b000000001111 1
b00000000000000000000000000011111 2
b00000000000000000000000001000000 3
1U
b00000000000000000000000001000000 f
#72
0U
#73
b00000000000000000000000001000000 0
b000000010000 1
b00000000000000000000000000100000 2
b00000000000000000000000001000100 3
1U
b00000000000000000000000001000100 f
#74
0U
#75
b00000000000000000000000001000100 0
b000000010001 1
b00000000000000000000000000100001 2
b00000000000000000000000001001000 3
1U
b00000000000000000000000001001000 f
#76
0U
#77
b00000000000000000000000001001000 0
b000000010010 1
b00000000000000000000000000100010 2
b00000000000000000000000001001100 3
1U
b00000000000000000000000001001100 f
#78
0U
#79
b00000000000000000000000001001100 0
b000000010011 1
b00000000000000000000000000100011 2
b00000000000000000000000001010000 3
1U
b00000000000000000000000001010000 f
#80
0U
#81
b00000000000000000000000001010000 0
b000000010100 1
b00000000000000000000000000100100 2
b00000000000000000000000001010100 3
1U
b00000000000000000000000001010100 f
#82
0U
#83
b00000000000000000000000001010100 0
b000000010101 1
b00000000000000000000000000100101 2
b00000000000000000000000001011000 3
1U
b00000000000000000000000001011000 f
#84
0U
#85
b00000000000000000000000001011000 0
b000000010110 1
b00000000000000000000000000100110 2
b00000000000000000000000001011100 3
1U
b00000000000000000000000001011100 f
#86
0U
#87
b00000000000000000000000001011100 0
b000000010111 1
b00000000000000000000000000100111 2
b00000000000000000000000001100000 3
1U
b00000000000000000000000001100000 f
#88
0U
#89
b00000000000000000000000001100000 0
b000000011000 1
b00000000000000000000000000101000 2
b00000000000000000000000001100100 3
1U
b00000000000000000000000001100100 f
#90
0U
#91
b00000000000000000000000001100100 0
b000000011001 1
b00000000000000000000000000101001 2
b00000000000000000000000001101000 3
1U
b00000000000000000000000001101000 f
#92
0U
#93
b00000000000000000000000001101000 0
b000000011010 1
b00000000000000000000000000101010 2
b00000000000000000000000001101100 3
1U
b00000000000000000000000001101100 f
#94
0U
#95
b00000000000000000000000001101100 0
b000000011011 1
b00000000000000000000000000101011 2
b00000000000000000000000001110000 3
1U
b00000000000000000000000001110000 f
#96
0U
#97
b00000000000000000000000001110000 0
b000000011100 1
b00000000000000000000000000101100 2
b00000000000000000000000001110100 3
1U
b00000000000000000000000001110100 f
#98
0U
#99
b00000000000000000000000001110100 0
b000000011101 1
b00000000000000000000000000101101 2
b00000000000000000000000001111000 3
1U
b00000000000000000000000001111000 f
#100
0U
#101
b00000000000000000000000001111000 0
b000000011110 1
b00000000000000000000000000101110 2
b00000000000000000000000001111100 3
1U
b00000000000000000000000001111100 f
#102
0U
#103
b00000000000000000000000001111100 0
b000000011111 1
b00000000000000000000000000101111 2
b00000000000000000000000010000000 3
1U
b00000000000000000000000010000000 f
#104
0U
#105
b00000000000000000000000010000000 0
b000000100000 1
b00000000000000000000000000110000 2
b00000000000000000000000010000100 3
1U
b00000000000000000000000010000100 f
#106
0U
#107
b00000000000000000000000010000100 0
b000000100001 1
b00000000000000000000000000110001 2
b00000000000000000000000010001000 3
1U
b00000000000000000000000010001000 f
#108
0U
#109
b00000000000000000000000010001000 0
b000000100010 1
b00000000000000000000000000110010 2
b00000000000000000000000010001100 3
1U
b00000000000000000000000010001100 f
#110
0U
#111
b00000000000000000000000010001100 0
b000000100011 1
b00000000000000000000000000110011 2
b00000000000000000000000010010000 3
1U
b00000000000000000000000010010000 f
#112
0U
#113
b00000000000000000000000010010000 0
b000000100100 1
b00000000000000000000000000110100 2
b00000000000000000000000010010100 3
1U
b00000000000000000000000010010100 f
#114
0U
#115
b00000000000000000000000010010100 0
b000000100101 1
b00000000000000000000000000110101 2
b00000000000000000000000010011000 3
1U
b00000000000000000000000010011000 f
#116
0U
#117
b00000000000000000000000010011000 0
b000000100110 1
b00000000000000000000000000110110 2
b00000000000000000000000010011100 3
1U
b00000000000000000000000010011100 f
#118
0U
#119
b00000000000000000000000010011100 0
b000000100111 1
b00000000000000000000000000110111 2
b00000000000000000000000010100000 3
1U
b00000000000000000000000010100000 f
#120
0U
#121
b00000000000000000000000010100000 0
b000000101000 1
b00000000000000000000000000111000 2
b00000000000000000000000010100100 3
1U
b00000000000000000000000010100100 f
#122
0U
#123
b00000000000000000000000010100100 0
b000000101001 1
b00000000000000000000000000111001 2
b00000000000000000000000010101000 3
1U
b00000000000000000000000010101000 f
#124
0U
#125
b00000000000000000000000010101000 0
b000000101010 1
b00000000000000000000000000111010 2
b00000000000000000000000010101100 3
1U
b00000000000000000000000010101100 f
#126
0U
#127
b00000000000000000000000010101100 0
b000000101011 1
b00000000000000000000000000111011 2
b00000000000000000000000010110000 3
1U
b00000000000000000000000010110000 f
#128
0U
#129
b00000000000000000000000010110000 0
b000000101100 1
b00000000000000000000000000111100 2
b00000000000000000000000010110100 3
1U
b00000000000000000000000010110100 f
#130
0U
#131
b00000000000000000000000010110100 0
b000000101101 1
b00000000000000000000000000111101 2
b00000000000000000000000010111000 3
1U
b00000000000000000000000010111000 f
#132
0U
#133
b00000000000000000000000010111000 0
b000000101110 1
b00000000000000000000000000111110 2
b00000000000000000000000010111100 3
1U
b00000000000000000000000010111100 f
#134
0U
#135
b00000000000000000000000010111100 0
b000000101111 1
b00000000000000000000000000111111 2
b00000000000000000000000011000000 3
1U
b00000000000000000000000011000000 f
#136
0U
#137
b00000000000000000000000011000000 0
b000000110000 1
b00000000000000000000000001000000 2
b00000000000000000000000011000100 3
1U
b00000000000000000000000011000100 f
#138
0U
#139
b00000000000000000000000011000100 0
b000000110001 1
b00000000000000000000000001000001 2
b00000000000000000000000011001000 3
1U
b00000000000000000000000011001000 f
#140
0U
#141
b00000000000000000000000011001000 0
b000000110010 1
b00000000000000000000000001000010 2
b00000000000000000000000011001100 3
1U
b00000000000000000000000011001100 f
#142
0U
#143
b00000000000000000000000011001100 0
b000000110011 1
b00000000000000000000000001000011 2
b00000000000000000000000011010000 3
1U
b00000000000000000000000011010000 f
#144
0U
#145
b00000000000000000000000011010000 0
b000000110100 1
b00000000000000000000000001000100 2
b00000000000000000000000011010100 3
1U
b00000000000000000000000011010100 f
#146
0U
#147
b00000000000000000000000011010100 0
b000000110101 1
b00000000000000000000000001000101 2
b00000000000000000000000011011000 3
1U
b00000000000000000000000011011000 f
#148
0U
#149
b00000000000000000000000011011000 0
b000000110110 1
b00000000000000000000000001000110 2
b00000000000000000000000011011100 3
1U
b00000000000000000000000011011100 f
#150
0U
#151
b00000000000000000000000011011100 0
b000000110111 1
b00000000000000000000000001000111 2
b00000000000000000000000011100000 3
1U
b00000000000000000000000011100000 f
#152
0U
#153
b00000000000000000000000011100000 0
b000000111000 1
b00000000000000000000000001001000 2
b00000000000000000000000011100100 3
1U
b00000000000000000000000011100100 f
#154
0U
#155
b00000000000000000000000011100100 0
b000000111001 1
b00000000000000000000000001001001 2
b00000000000000000000000011101000 3
1U
b00000000000000000000000011101000 f
#156
0U
#157
b00000000000000000000000011101000 0
b000000111010 1
b00000000000000000000000001001010 2
b00000000000000000000000011101100 3
1U
b00000000000000000000000011101100 f
#158
0U
#159
b00000000000000000000000011101100 0
b000000111011 1
b00000000000000000000000001001011 2
b00000000000000000000000011110000 3
1U
b00000000000000000000000011110000 f
#160
0U
#161
b00000000000000000000000011110000 0
b000000111100 1
b00000000000000000000000001001100 2
b00000000000000000000000011110100 3
1U
b00000000000000000000000011110100 f
#162
0U
#163
b00000000000000000000000011110100 0
b000000111101 1
b00000000000000000000000001001101 2
b00000000000000000000000011111000 3
1U
b00000000000000000000000011111000 f
#164
0U
#165
b00000000000000000000000011111000 0
b000000111110 1
b00000000000000000000000001001110 2
b00000000000000000000000011111100 3
1U
b00000000000000000000000011111100 f
#166
0U
#167
b00000000000000000000000011111100 0
b000000111111 1
b00000000000000000000000001001111 2
b00000000000000000000000100000000 3
1U
b00000000000000000000000100000000 f
#168
0U
#169
b00000000000000000000000100000000 0
b000001000000 1
b00000000000000000000000001010000 2
b00000000000000000000000100000100 3
1U
b00000000000000000000000100000100 f
#170
0U
#171
b00000000000000000000000100000100 0
b000001000001 1
b00000000000000000000000001010001 2
b00000000000000000000000100001000 3
1U
b00000000000000000000000100001000 f
#172
0U
#173
b00000000000000000000000100001000 0
b000001000010 1
b00000000000000000000000001010010 2
b00000000000000000000000100001100 3
1U
b00000000000000000000000100001100 f
#174
0U
#175
b00000000000000000000000100001100 0
b000001000011 1
b00000000000000000000000001010011 2
b00000000000000000000000100010000 3
1U
b00000000000000000000000100010000 f
#176
0U
#177
b00000000000000000000000100010000 0
b000001000100 1
b00000000000000000000000001010100 2
b00000000000000000000000100010100 3
1U
b00000000000000000000000100010100 f
#178
0U
#179
b00000000000000000000000100010100 0
b000001000101 1
b00000000000000000000000001010101 2
b00000000000000000000000100011000 3
1U
b00000000000000000000000100011000 f
#180
0U
#181
b00000000000000000000000100011000 0
b000001000110 1
b00000000000000000000000001010110 2
b00000000000000000000000100011100 3
1U
b00000000000000000000000100011100 f
#182
0U
#183
b00000000000000000000000100011100 0
b000001000111 1
b00000000000000000000000001010111 2
b00000000000000000000000100100000 3
1U
b00000000000000000000000100100000 f
#184
0U
#185
b00000000000000000000000100100000 0
b000001001000 1
b00000000000000000000000001011000 2
b00000000000000000000000100100100 3
1U
b00000000000000000000000100100100 f
#186
0U
#187
b00000000000000000000000100100100 0
b000001001001 1
b00000000000000000000000001011001 2
b00000000000000000000000100101000 3
1U
b00000000000000000000000100101000 f
#188
0U
#189
b00000000000000000000000100101000 0
b000001001010 1
b00000000000000000000000001011010 2
b00000000000000000000000100101100 3
1U
b00000000000000000000000100101100 f
#190
0U
#191
b00000000000000000000000100101100 0
b000001001011 1
b00000000000000000000000001011011 2
b00000000000000000000000100110000 3
1U
b00000000000000000000000100110000 f
#192
0U
#193
b00000000000000000000000100110000 0
b000001001100 1
b00000000000000000000000001011100 2
b00000000000000000000000100110100 3
1U
b00000000000000000000000100110100 f
#194
0U
#195
b00000000000000000000000100110100 0
b000001001101 1
b00000000000000000000000001011101 2
b00000000000000000000000100111000 3
1U
b00000000000000000000000100111000 f
#196
0U
#197
b00000000000000000000000100111000 0
b000001001110 1
b00000000000000000000000001011110 2
b00000000000000000000000100111100 3
1U
b00000000000000000000000100111100 f
#198
0U
#199
b00000000000000000000000100111100 0
b000001001111 1
b00000000000000000000000001011111 2
b00000000000000000000000101000000 3
1U
b00000000000000000000000101000000 f
#200
0U
#201
b00000000000000000000000101000000 0
b000001010000 1
b00000000000000000000000001100000 2
b00000000000000000000000101000100 3
1U
b00000000000000000000000101000100 f
#202
0U
#203
b00000000000000000000000101000100 0
b000001010001 1
b00000000000000000000000001100001 2
b00000000000000000000000101001000 3
1U
b00000000000000000000000101001000 f
#204
0U
#205
b00000000000000000000000101001000 0
b000001010010 1
b00000000000000000000000001100010 2
b00000000000000000000000101001100 3
1U
b00000000000000000000000101001100 f
#206
0U
#207
b00000000000000000000000101001100 0
b000001010011 1
b00000000000000000000000001100011 2
b00000000000000000000000101010000 3
1U
b00000000000000000000000101010000 f
#208
0U
#209
b00000000000000000000000101010000 0
b000001010100 1
b00000000000000000000000001100100 2
b00000000000000000000000101010100 3
1U
b00000000000000000000000101010100 f
#210
0U
#211
b00000000000000000000000101010100 0
b000001010101 1
b00000000000000000000000001100101 2
b00000000000000000000000101011000 3
1U
b00000000000000000000000101011000 f
#212
0U
#213
b00000000000000000000000101011000 0
b000001010110 1
b00000000000000000000000001100110 2
b00000000000000000000000101011100 3
1U
b00000000000000000000000101011100 f
#214
0U
#215
b00000000000000000000000101011100 0
b000001010111 1
b00000000000000000000000001100111 2
b00000000000000000000000101100000 3
1U
b00000000000000000000000101100000 f
#216
0U
#217
b00000000000000000000000101100000 0
b000001011000 1
b00000000000000000000000001101000 2
b00000000000000000000000101100100 3
1U
b00000000000000000000000101100100 f
#218
0U
#219
b00000000000000000000000101100100 0
b000001011001 1
b00000000000000000000000001101001 2
b00000000000000000000000101101000 3
1U
b00000000000000000000000101101000 f
#220
0U
#221
b00000000000000000000000101101000 0
b000001011010 1
b00000000000000000000000001101010 2
b00000000000000000000000101101100 3
1U
b00000000000000000000000101101100 f
#222
0U
#223
b00000000000000000000000101101100 0
b000001011011 1
b00000000000000000000000001101011 2
b00000000000000000000000101110000 3
1U
b00000000000000000000000101110000 f
#224
0U
#225
b00000000000000000000000101110000 0
b000001011100 1
b00000000000000000000000001101100 2
b00000000000000000000000101110100 3
1U
b00000000000000000000000101110100 f
#226
0U
#227
b00000000000000000000000101110100 0
b000001011101 1
b00000000000000000000000001101101 2
b00000000000000000000000101111000 3
1U
b00000000000000000000000101111000 f
#228
0U
#229
b00000000000000000000000101111000 0
b000001011110 1
b00000000000000000000000001101110 2
b00000000000000000000000101111100 3
1U
b00000000000000000000000101111100 f
#230
0U
#231
b00000000000000000000000101111100 0
b000001011111 1
b00000000000000000000000001101111 2
b00000000000000000000000110000000 3
1U
b00000000000000000000000110000000 f
#232
0U
#233
b00000000000000000000000110000000 0
b000001100000 1
b00000000000000000000000001110000 2
b00000000000000000000000110000100 3
1U
b00000000000000000000000110000100 f
#234
0U
#235
b00000000000000000000000110000100 0
b000001100001 1
b00000000000000000000000001110001 2
b00000000000000000000000110001000 3
1U
b00000000000000000000000110001000 f
#236
0U
#237
b00000000000000000000000110001000 0
b000001100010 1
b00000000000000000000000001110010 2
b00000000000000000000000110001100 3
1U
b00000000000000000000000110001100 f
#238
0U
#239
b00000000000000000000000110001100 0
b000001100011 1
b00000000000000000000000001110011 2
b00000000000000000000000110010000 3
1U
b00000000000000000000000110010000 f
#240
0U
#241
b00000000000000000000000110010000 0
b000001100100 1
b00000000000000000000000001110100 2
b00000000000000000000000110010100 3
1U
b00000000000000000000000110010100 f
#242
0,
1-
0U
1W
1^
b00 b
1c
b00000000000000000000000000000000 f
#243
b00000000000000000000000000000000 0
b000000000000 1
b00000000000000000000000001110101 2
b00000000000000000000000000000100 3
1U
#244
0U
b00000000000000000000000000000100 _
b00000000000000000000000000000001 e
b00000000000001 g
#245
b00000000000000000000000001110110 2
1U
#246
0U
b00000000000000000000000000001000 _
b00000000000000000000000000000010 e
b00000000000010 g
#247
b00000000000000000000000001110111 2
1U
